…
There are no duplicate values of the id variable.

#### name

``` r
duplicate_cases <- compas %>%
  group_by(name) %>%
  filter(n() > 1) %>%
  arrange(name) %>% 
  select(name, dob, everything())
duplicate_cases
```

    ## # A tibble: 111 × 53
    ## # Groups:   name [55]
    ##    name   dob           id first last  compas_screening_date sex     age age_cat
    ##    <chr>  <date>     <dbl> <chr> <chr> <date>                <chr> <dbl> <chr>  
    ##  1 angel… 1978-04-27  3747 angel sant… 2013-05-26            Male     37 25 - 45
    ##  2 angel… 1983-07-28  9810 angel sant… 2013-09-17            Male     32 25 - 45
    ##  3 antho… 1985-03-04  4230 anth… gonz… 2013-05-24            Male     31 25 - 45
    ##  4 antho… 1982-08-26  8613 anth… gonz… 2013-04-10            Male     33 25 - 45
    ##  5 antho… 1985-07-19   679 anth… louis 2013-03-19            Male     30 25 - 45
    ##  6 antho… 1966-11-05  9534 anth… louis 2014-01-25            Male     49 Greate…
    ##  7 antho… 1989-03-27   108 anth… smith 2014-12-03            Male     27 25 - 45
    ##  8 antho… 1968-02-08  1038 anth… smith 2014-07-28            Male     48 Greate…
    ##  9 antho… 1964-07-01  5552 anth… smith 2013-03-15            Male     51 Greate…
    ## 10 brand… 1989-07-22   700 bran… whit… 2013-03-05            Male     26 25 - 45
    ## # ℹ 101 more rows
    ## # ℹ 44 more variables: race <chr>, juv_fel_count <dbl>, decile_score <dbl>,
    ## #   juv_misd_count <dbl>, juv_other_count <dbl>, priors_count <dbl>,
    ## #   days_b_screening_arrest <dbl>, c_jail_in <dttm>, c_jail_out <dttm>,
    ## #   c_case_number <chr>, c_offense_date <date>, c_arrest_date <date>,
    ## #   c_days_from_compas <dbl>, c_charge_degree <chr>, c_charge_desc <chr>,
    ## #   is_recid <dbl>, r_case_number <chr>, r_charge_degree <chr>, …
…
